{
  "timeZone": "Europe/Paris",
  "dependencies": {
  },
  "webapp": {
    "access": "ANYONE_ANONYMOUS",
    "executeAs": "USER_DEPLOYING"
  },
  "exceptionLogging": "STACKDRIVER",
  "runtimeVersion": "V8"
}
